<?xml version="1.0" encoding="UTF-8"?>
<gexf xmlns="http://www.gexf.net/1.3" version="1.3" xmlns:viz="http://www.gexf.net/1.3/viz" xmlns:xsi="http://www.w3.org/2001/XMLSchema-instance" xsi:schemaLocation="http://www.gexf.net/1.3 http://www.gexf.net/1.3/gexf.xsd">
  <meta lastmodifieddate="2019-02-04">
    <creator>Gephi 0.9</creator>
    <description></description>
  </meta>
  <graph defaultedgetype="undirected" timeformat="double" timerepresentation="interval" mode="dynamic">
    <attributes class="node" mode="dynamic">
      <attribute id="attr_type" title="Type" type="string"></attribute>
      <attribute id="global_occurrences" title="Occurrences Count" type="integer"></attribute>
    </attributes>
    <attributes class="edge" mode="dynamic">
      <attribute id="attr_type" title="Type" type="string"></attribute>
      <attribute id="matchings_count" title="Matchings Count" type="integer"></attribute>
    </attributes>
    <nodes>
      <node id="structacronyms_5f1006fe3b2852fd31a65578a5d7eca2" label="DAPI">
        <spells>
          <spell start="2006.0" end="2007.0"></spell>
          <spell start="2014.0" end="2015.0"></spell>
          <spell start="2015.0" end="2016.0"></spell>
          <spell start="2016.0" end="2017.0"></spell>
          <spell start="2017.0" end="2018.0"></spell>
          <spell start="2018.0" end="2019.0"></spell>
          <spell start="2019.0" end="2020.0"></spell>
        </spells>
        <attvalues>
          <attvalue for="attr_type" value="structAcronym_s"></attvalue>
          <attvalue for="global_occurrences" value="300"></attvalue>
        </attvalues>
        <viz:size value="29.735973"></viz:size>
        <viz:position x="-239.5963" y="208.78217"></viz:position>
        <viz:color r="241" g="221" b="58"></viz:color>
      </node>
      <node id="structacronyms_b48c48454382bb162a821920285aed25" label="DSEE">
        <spells>
          <spell start="2016.0" end="2017.0"></spell>
          <spell start="2017.0" end="2018.0"></spell>
          <spell start="2018.0" end="2019.0"></spell>
        </spells>
        <attvalues>
          <attvalue for="attr_type" value="structAcronym_s"></attvalue>
          <attvalue for="global_occurrences" value="30"></attvalue>
        </attvalues>
        <viz:size value="11.914191"></viz:size>
        <viz:position x="388.2534" y="154.37386"></viz:position>
        <viz:color r="241" g="221" b="58"></viz:color>
      </node>
      <node id="structacronyms_0d0b7d8c110b14bebcb29c7e28c8e60f" label="ELEC">
        <spells>
          <spell start="1995.0" end="1996.0"></spell>
          <spell start="1996.0" end="1997.0"></spell>
          <spell start="1997.0" end="1998.0"></spell>
          <spell start="1999.0" end="2000.0"></spell>
          <spell start="2002.0" end="2003.0"></spell>
          <spell start="2004.0" end="2005.0"></spell>
          <spell start="2015.0" end="2016.0"></spell>
          <spell start="2017.0" end="2018.0"></spell>
          <spell start="2018.0" end="2019.0"></spell>
        </spells>
        <attvalues>
          <attvalue for="attr_type" value="structAcronym_s"></attvalue>
          <attvalue for="global_occurrences" value="129"></attvalue>
        </attvalues>
        <viz:size value="18.448845"></viz:size>
        <viz:position x="57.61859" y="198.17418"></viz:position>
        <viz:color r="241" g="221" b="58"></viz:color>
      </node>
      <node id="structacronyms_caf9b6b99962bf5c2264824231d7a40c" label="INFO">
        <spells>
          <spell start="2002.0" end="2003.0"></spell>
          <spell start="2017.0" end="2018.0"></spell>
          <spell start="2018.0" end="2019.0"></spell>
        </spells>
        <attvalues>
          <attvalue for="attr_type" value="structAcronym_s"></attvalue>
          <attvalue for="global_occurrences" value="100"></attvalue>
        </attvalues>
        <viz:size value="16.534653"></viz:size>
        <viz:position x="-305.08295" y="-171.4088"></viz:position>
        <viz:color r="241" g="221" b="58"></viz:color>
      </node>
      <node id="structacronyms_8ca6342915ac81dd2d3eec49e2098db9" label="ITI">
        <spells>
          <spell start="2012.0" end="2013.0"></spell>
          <spell start="2017.0" end="2018.0"></spell>
          <spell start="2018.0" end="2019.0"></spell>
        </spells>
        <attvalues>
          <attvalue for="attr_type" value="structAcronym_s"></attvalue>
          <attvalue for="global_occurrences" value="29"></attvalue>
        </attvalues>
        <viz:size value="11.848185"></viz:size>
        <viz:position x="123.83595" y="-259.48026"></viz:position>
        <viz:color r="241" g="221" b="58"></viz:color>
      </node>
      <node id="structacronyms_04ad253f51f0d71c6dd6879365c364cb" label="LUSSI">
        <spells>
          <spell start="2011.0" end="2012.0"></spell>
          <spell start="2015.0" end="2016.0"></spell>
          <spell start="2016.0" end="2017.0"></spell>
          <spell start="2017.0" end="2018.0"></spell>
          <spell start="2018.0" end="2019.0"></spell>
        </spells>
        <attvalues>
          <attvalue for="attr_type" value="structAcronym_s"></attvalue>
          <attvalue for="global_occurrences" value="86"></attvalue>
        </attvalues>
        <viz:size value="15.610561"></viz:size>
        <viz:position x="-146.78238" y="-83.496765"></viz:position>
        <viz:color r="241" g="221" b="58"></viz:color>
      </node>
      <node id="structacronyms_27c9d5187cd283f8d160ec1ed2b5ac89" label="MO">
        <spells>
          <spell start="2017.0" end="2018.0"></spell>
          <spell start="2018.0" end="2019.0"></spell>
        </spells>
        <attvalues>
          <attvalue for="attr_type" value="structAcronym_s"></attvalue>
          <attvalue for="global_occurrences" value="18"></attvalue>
        </attvalues>
        <viz:size value="11.122112"></viz:size>
        <viz:position x="271.2902" y="-242.0684"></viz:position>
        <viz:color r="241" g="221" b="58"></viz:color>
      </node>
      <node id="structacronyms_4d29ea5f748c4cfda37434ce76a5e788" label="OPT">
        <spells>
          <spell start="2013.0" end="2014.0"></spell>
          <spell start="2017.0" end="2018.0"></spell>
          <spell start="2018.0" end="2019.0"></spell>
          <spell start="2019.0" end="2020.0"></spell>
        </spells>
        <attvalues>
          <attvalue for="attr_type" value="structAcronym_s"></attvalue>
          <attvalue for="global_occurrences" value="35"></attvalue>
        </attvalues>
        <viz:size value="12.244225"></viz:size>
        <viz:position x="213.50938" y="201.59988"></viz:position>
        <viz:color r="241" g="221" b="58"></viz:color>
      </node>
      <node id="structacronyms_d54185b71f614c30a396ac4bc44d3269" label="SC">
        <spells>
          <spell start="1995.0" end="1996.0"></spell>
          <spell start="2003.0" end="2004.0"></spell>
          <spell start="2017.0" end="2018.0"></spell>
          <spell start="2018.0" end="2019.0"></spell>
          <spell start="2019.0" end="2020.0"></spell>
        </spells>
        <attvalues>
          <attvalue for="attr_type" value="structAcronym_s"></attvalue>
          <attvalue for="global_occurrences" value="120"></attvalue>
        </attvalues>
        <viz:size value="17.854786"></viz:size>
        <viz:position x="8.830773" y="-200.07747"></viz:position>
        <viz:color r="241" g="221" b="58"></viz:color>
      </node>
      <node id="structacronyms_9b97b26a378701302032d84e26ecab5d" label="SRCD">
        <spells>
          <spell start="2015.0" end="2016.0"></spell>
          <spell start="2016.0" end="2017.0"></spell>
          <spell start="2017.0" end="2018.0"></spell>
          <spell start="2018.0" end="2019.0"></spell>
          <spell start="2019.0" end="2020.0"></spell>
        </spells>
        <attvalues>
          <attvalue for="attr_type" value="structAcronym_s"></attvalue>
          <attvalue for="global_occurrences" value="124"></attvalue>
        </attvalues>
        <viz:size value="18.118813"></viz:size>
        <viz:position x="-319.2365" y="31.002779"></viz:position>
        <viz:color r="241" g="221" b="58"></viz:color>
      </node>
      <node id="structacronyms_59334e721bcd3101864d09e30f5bd34b" label="SSG" start="2017.0" end="2018.0">
        <attvalues>
          <attvalue for="attr_type" value="structAcronym_s"></attvalue>
          <attvalue for="global_occurrences" value="6"></attvalue>
        </attvalues>
        <viz:size value="10.330033"></viz:size>
        <viz:position x="-583.23553" y="38.25524"></viz:position>
        <viz:color r="241" g="221" b="58"></viz:color>
      </node>
      <node id="structacronyms_a606bb61c2f4209f355daaa7fa2454fb" label="SUBATECH">
        <spells>
          <spell start="1996.0" end="1997.0"></spell>
          <spell start="2017.0" end="2018.0"></spell>
          <spell start="2018.0" end="2019.0"></spell>
        </spells>
        <attvalues>
          <attvalue for="attr_type" value="structAcronym_s"></attvalue>
          <attvalue for="global_occurrences" value="7"></attvalue>
        </attvalues>
        <viz:size value="10.39604"></viz:size>
        <viz:position x="368.03857" y="-74.68998"></viz:position>
        <viz:color r="241" g="221" b="58"></viz:color>
      </node>
      <node id="level1domains_44283fba74db6886aa3e88dc4971b6b0" label="Chimie">
        <spells>
          <spell start="2017.0" end="2018.0"></spell>
          <spell start="2018.0" end="2019.0"></spell>
        </spells>
        <attvalues>
          <attvalue for="attr_type" value="level1_domain_s"></attvalue>
          <attvalue for="global_occurrences" value="9"></attvalue>
        </attvalues>
        <viz:size value="10.528053"></viz:size>
        <viz:position x="288.39746" y="294.1994"></viz:position>
        <viz:color r="119" g="230" b="255"></viz:color>
      </node>
      <node id="level1domains_7f3b4fe02c26a3183d02b1bdf3294035" label="Economie et Finance Quantitative" start="2017.0" end="2018.0">
        <attvalues>
          <attvalue for="attr_type" value="level1_domain_s"></attvalue>
          <attvalue for="global_occurrences" value="2"></attvalue>
        </attvalues>
        <viz:size value="10.066007"></viz:size>
        <viz:position x="-306.62137" y="-269.0031"></viz:position>
        <viz:color r="119" g="230" b="255"></viz:color>
      </node>
      <node id="level1domains_bdb54e6a4dc75c4b751db58868beaa16" label="Informatique">
        <spells>
          <spell start="1995.0" end="1996.0"></spell>
          <spell start="1996.0" end="1997.0"></spell>
          <spell start="1997.0" end="1998.0"></spell>
          <spell start="1999.0" end="2000.0"></spell>
          <spell start="2002.0" end="2003.0"></spell>
          <spell start="2004.0" end="2005.0"></spell>
          <spell start="2006.0" end="2007.0"></spell>
          <spell start="2013.0" end="2014.0"></spell>
          <spell start="2014.0" end="2015.0"></spell>
          <spell start="2015.0" end="2016.0"></spell>
          <spell start="2016.0" end="2017.0"></spell>
          <spell start="2017.0" end="2018.0"></spell>
          <spell start="2018.0" end="2019.0"></spell>
          <spell start="2019.0" end="2020.0"></spell>
        </spells>
        <attvalues>
          <attvalue for="attr_type" value="level1_domain_s"></attvalue>
          <attvalue for="global_occurrences" value="607"></attvalue>
        </attvalues>
        <viz:size value="50.0"></viz:size>
        <viz:position x="-0.0015425389" y="0.0038661964"></viz:position>
        <viz:color r="119" g="230" b="255"></viz:color>
      </node>
      <node id="level1domains_3f4a3e6fabe83043bc502ecd0f934445" label="Mathematiques">
        <spells>
          <spell start="2017.0" end="2018.0"></spell>
          <spell start="2018.0" end="2019.0"></spell>
        </spells>
        <attvalues>
          <attvalue for="attr_type" value="level1_domain_s"></attvalue>
          <attvalue for="global_occurrences" value="43"></attvalue>
        </attvalues>
        <viz:size value="12.772278"></viz:size>
        <viz:position x="-80.45934" y="185.53203"></viz:position>
        <viz:color r="119" g="230" b="255"></viz:color>
      </node>
      <node id="level1domains_b65ccaf07235e2390f0b43eabe99fde0" label="Physique">
        <spells>
          <spell start="1996.0" end="1997.0"></spell>
          <spell start="2016.0" end="2017.0"></spell>
          <spell start="2017.0" end="2018.0"></spell>
          <spell start="2018.0" end="2019.0"></spell>
          <spell start="2019.0" end="2020.0"></spell>
        </spells>
        <attvalues>
          <attvalue for="attr_type" value="level1_domain_s"></attvalue>
          <attvalue for="global_occurrences" value="20"></attvalue>
        </attvalues>
        <viz:size value="11.254126"></viz:size>
        <viz:position x="313.76013" y="-10.789135"></viz:position>
        <viz:color r="119" g="230" b="255"></viz:color>
      </node>
      <node id="level1domains_e5c15305aba211a93ccc61a3d4befdf9" label="Sciences cognitives">
        <spells>
          <spell start="2006.0" end="2007.0"></spell>
          <spell start="2015.0" end="2016.0"></spell>
          <spell start="2017.0" end="2018.0"></spell>
          <spell start="2018.0" end="2019.0"></spell>
        </spells>
        <attvalues>
          <attvalue for="attr_type" value="level1_domain_s"></attvalue>
          <attvalue for="global_occurrences" value="15"></attvalue>
        </attvalues>
        <viz:size value="10.924092"></viz:size>
        <viz:position x="-170.47049" y="54.419968"></viz:position>
        <viz:color r="119" g="230" b="255"></viz:color>
      </node>
      <node id="level1domains_b155b0ca48695d05edf323030c791b1c" label="Sciences de l'Ingenieur">
        <spells>
          <spell start="1995.0" end="1996.0"></spell>
          <spell start="1996.0" end="1997.0"></spell>
          <spell start="1997.0" end="1998.0"></spell>
          <spell start="2002.0" end="2003.0"></spell>
          <spell start="2003.0" end="2004.0"></spell>
          <spell start="2004.0" end="2005.0"></spell>
          <spell start="2012.0" end="2013.0"></spell>
          <spell start="2016.0" end="2017.0"></spell>
          <spell start="2017.0" end="2018.0"></spell>
          <spell start="2018.0" end="2019.0"></spell>
          <spell start="2019.0" end="2020.0"></spell>
        </spells>
        <attvalues>
          <attvalue for="attr_type" value="level1_domain_s"></attvalue>
          <attvalue for="global_occurrences" value="195"></attvalue>
        </attvalues>
        <viz:size value="22.80528"></viz:size>
        <viz:position x="150.48386" y="-117.647575"></viz:position>
        <viz:color r="119" g="230" b="255"></viz:color>
      </node>
      <node id="level1domains_46b05b9e19d31622eeb30f1b0a9d3d66" label="Sciences de l'Univers">
        <spells>
          <spell start="2017.0" end="2018.0"></spell>
          <spell start="2018.0" end="2019.0"></spell>
        </spells>
        <attvalues>
          <attvalue for="attr_type" value="level1_domain_s"></attvalue>
          <attvalue for="global_occurrences" value="15"></attvalue>
        </attvalues>
        <viz:size value="10.924092"></viz:size>
        <viz:position x="181.05194" y="-352.76874"></viz:position>
        <viz:color r="119" g="230" b="255"></viz:color>
      </node>
      <node id="level1domains_5ce90261bad2e632a96121a52378e424" label="Sciences du l'Environnement">
        <spells>
          <spell start="2016.0" end="2017.0"></spell>
          <spell start="2017.0" end="2018.0"></spell>
        </spells>
        <attvalues>
          <attvalue for="attr_type" value="level1_domain_s"></attvalue>
          <attvalue for="global_occurrences" value="4"></attvalue>
        </attvalues>
        <viz:size value="10.19802"></viz:size>
        <viz:position x="502.183" y="206.0267"></viz:position>
        <viz:color r="119" g="230" b="255"></viz:color>
      </node>
      <node id="level1domains_b4980fab3af3db863d59f33a20a0a055" label="Sciences du Vivant">
        <spells>
          <spell start="2015.0" end="2016.0"></spell>
          <spell start="2017.0" end="2018.0"></spell>
          <spell start="2018.0" end="2019.0"></spell>
        </spells>
        <attvalues>
          <attvalue for="attr_type" value="level1_domain_s"></attvalue>
          <attvalue for="global_occurrences" value="13"></attvalue>
        </attvalues>
        <viz:size value="10.792079"></viz:size>
        <viz:position x="191.5075" y="96.16267"></viz:position>
        <viz:color r="119" g="230" b="255"></viz:color>
      </node>
      <node id="level1domains_16a9f5be74a61d0bae6c4d3f29981825" label="Sciences humaines et sociales">
        <spells>
          <spell start="2011.0" end="2012.0"></spell>
          <spell start="2015.0" end="2016.0"></spell>
          <spell start="2016.0" end="2017.0"></spell>
          <spell start="2017.0" end="2018.0"></spell>
          <spell start="2018.0" end="2019.0"></spell>
        </spells>
        <attvalues>
          <attvalue for="attr_type" value="level1_domain_s"></attvalue>
          <attvalue for="global_occurrences" value="40"></attvalue>
        </attvalues>
        <viz:size value="12.574258"></viz:size>
        <viz:position x="-483.2719" y="9.928259"></viz:position>
        <viz:color r="119" g="230" b="255"></viz:color>
      </node>
      <node id="level1domains_fc8d7c69c095985e33a253610f7c9dc6" label="Sciences non lineaire" start="2017.0" end="2018.0">
        <attvalues>
          <attvalue for="attr_type" value="level1_domain_s"></attvalue>
          <attvalue for="global_occurrences" value="1"></attvalue>
        </attvalues>
        <viz:size value="10.0"></viz:size>
        <viz:position x="-311.22842" y="327.43695"></viz:position>
        <viz:color r="119" g="230" b="255"></viz:color>
      </node>
      <node id="level1domains_f48ed107b9560794248804ace2d35edb" label="Statistiques">
        <spells>
          <spell start="2015.0" end="2016.0"></spell>
          <spell start="2017.0" end="2018.0"></spell>
          <spell start="2018.0" end="2019.0"></spell>
        </spells>
        <attvalues>
          <attvalue for="attr_type" value="level1_domain_s"></attvalue>
          <attvalue for="global_occurrences" value="20"></attvalue>
        </attvalues>
        <viz:size value="11.254126"></viz:size>
        <viz:position x="-306.9051" y="-69.34396"></viz:position>
        <viz:color r="119" g="230" b="255"></viz:color>
      </node>
    </nodes>
    <edges>
      <edge id="0" source="structacronyms_5f1006fe3b2852fd31a65578a5d7eca2" target="level1domains_bdb54e6a4dc75c4b751db58868beaa16">
        <spells>
          <spell start="2006.0" end="2007.0"></spell>
          <spell start="2014.0" end="2015.0"></spell>
          <spell start="2015.0" end="2016.0"></spell>
          <spell start="2016.0" end="2017.0"></spell>
          <spell start="2017.0" end="2018.0"></spell>
          <spell start="2018.0" end="2019.0"></spell>
          <spell start="2019.0" end="2020.0"></spell>
        </spells>
        <viz:color r="252" g="11" b="3"></viz:color>
        <attvalues>
          <attvalue for="matchings_count" value="238"></attvalue>
        </attvalues>
      </edge>
      <edge id="1" source="structacronyms_5f1006fe3b2852fd31a65578a5d7eca2" target="level1domains_3f4a3e6fabe83043bc502ecd0f934445">
        <spells>
          <spell start="2017.0" end="2018.0"></spell>
          <spell start="2018.0" end="2019.0"></spell>
        </spells>
        <viz:color r="183" g="180" b="7"></viz:color>
        <attvalues>
          <attvalue for="matchings_count" value="21"></attvalue>
        </attvalues>
      </edge>
      <edge id="2" source="structacronyms_5f1006fe3b2852fd31a65578a5d7eca2" target="level1domains_b65ccaf07235e2390f0b43eabe99fde0" start="2017.0" end="2018.0">
        <viz:color r="59" g="233" b="16"></viz:color>
        <attvalues>
          <attvalue for="matchings_count" value="2"></attvalue>
        </attvalues>
      </edge>
      <edge id="3" source="structacronyms_5f1006fe3b2852fd31a65578a5d7eca2" target="level1domains_e5c15305aba211a93ccc61a3d4befdf9">
        <spells>
          <spell start="2006.0" end="2007.0"></spell>
          <spell start="2017.0" end="2018.0"></spell>
          <spell start="2018.0" end="2019.0"></spell>
        </spells>
        <viz:color r="120" g="207" b="12"></viz:color>
        <attvalues>
          <attvalue for="matchings_count" value="7"></attvalue>
        </attvalues>
      </edge>
      <edge id="4" source="structacronyms_5f1006fe3b2852fd31a65578a5d7eca2" target="level1domains_b155b0ca48695d05edf323030c791b1c">
        <spells>
          <spell start="2017.0" end="2018.0"></spell>
          <spell start="2018.0" end="2019.0"></spell>
        </spells>
        <viz:color r="200" g="172" b="5"></viz:color>
        <attvalues>
          <attvalue for="matchings_count" value="28"></attvalue>
        </attvalues>
      </edge>
      <edge id="5" source="structacronyms_5f1006fe3b2852fd31a65578a5d7eca2" target="level1domains_16a9f5be74a61d0bae6c4d3f29981825" start="2018.0" end="2019.0">
        <viz:color r="9" g="255" b="21"></viz:color>
        <attvalues>
          <attvalue for="matchings_count" value="1"></attvalue>
        </attvalues>
      </edge>
      <edge id="6" source="structacronyms_5f1006fe3b2852fd31a65578a5d7eca2" target="level1domains_fc8d7c69c095985e33a253610f7c9dc6" start="2017.0" end="2018.0">
        <viz:color r="9" g="255" b="21"></viz:color>
        <attvalues>
          <attvalue for="matchings_count" value="1"></attvalue>
        </attvalues>
      </edge>
      <edge id="7" source="structacronyms_5f1006fe3b2852fd31a65578a5d7eca2" target="level1domains_f48ed107b9560794248804ace2d35edb" start="2017.0" end="2018.0">
        <viz:color r="59" g="233" b="16"></viz:color>
        <attvalues>
          <attvalue for="matchings_count" value="2"></attvalue>
        </attvalues>
      </edge>
      <edge id="8" source="structacronyms_b48c48454382bb162a821920285aed25" target="level1domains_44283fba74db6886aa3e88dc4971b6b0" start="2017.0" end="2018.0">
        <viz:color r="9" g="255" b="21"></viz:color>
        <attvalues>
          <attvalue for="matchings_count" value="1"></attvalue>
        </attvalues>
      </edge>
      <edge id="9" source="structacronyms_b48c48454382bb162a821920285aed25" target="level1domains_bdb54e6a4dc75c4b751db58868beaa16" start="2018.0" end="2019.0">
        <viz:color r="9" g="255" b="21"></viz:color>
        <attvalues>
          <attvalue for="matchings_count" value="1"></attvalue>
        </attvalues>
      </edge>
      <edge id="10" source="structacronyms_b48c48454382bb162a821920285aed25" target="level1domains_b65ccaf07235e2390f0b43eabe99fde0" start="2016.0" end="2017.0">
        <viz:color r="9" g="255" b="21"></viz:color>
        <attvalues>
          <attvalue for="matchings_count" value="1"></attvalue>
        </attvalues>
      </edge>
      <edge id="11" source="structacronyms_b48c48454382bb162a821920285aed25" target="level1domains_b155b0ca48695d05edf323030c791b1c">
        <spells>
          <spell start="2016.0" end="2017.0"></spell>
          <spell start="2017.0" end="2018.0"></spell>
          <spell start="2018.0" end="2019.0"></spell>
        </spells>
        <viz:color r="180" g="181" b="7"></viz:color>
        <attvalues>
          <attvalue for="matchings_count" value="20"></attvalue>
        </attvalues>
      </edge>
      <edge id="12" source="structacronyms_b48c48454382bb162a821920285aed25" target="level1domains_5ce90261bad2e632a96121a52378e424">
        <spells>
          <spell start="2016.0" end="2017.0"></spell>
          <spell start="2017.0" end="2018.0"></spell>
        </spells>
        <viz:color r="91" g="219" b="14"></viz:color>
        <attvalues>
          <attvalue for="matchings_count" value="4"></attvalue>
        </attvalues>
      </edge>
      <edge id="13" source="structacronyms_b48c48454382bb162a821920285aed25" target="level1domains_b4980fab3af3db863d59f33a20a0a055" start="2017.0" end="2018.0">
        <viz:color r="78" g="225" b="15"></viz:color>
        <attvalues>
          <attvalue for="matchings_count" value="3"></attvalue>
        </attvalues>
      </edge>
      <edge id="14" source="structacronyms_0d0b7d8c110b14bebcb29c7e28c8e60f" target="level1domains_44283fba74db6886aa3e88dc4971b6b0" start="2018.0" end="2019.0">
        <viz:color r="91" g="219" b="14"></viz:color>
        <attvalues>
          <attvalue for="matchings_count" value="4"></attvalue>
        </attvalues>
      </edge>
      <edge id="15" source="structacronyms_0d0b7d8c110b14bebcb29c7e28c8e60f" target="level1domains_bdb54e6a4dc75c4b751db58868beaa16">
        <spells>
          <spell start="1995.0" end="1996.0"></spell>
          <spell start="1996.0" end="1997.0"></spell>
          <spell start="1997.0" end="1998.0"></spell>
          <spell start="1999.0" end="2000.0"></spell>
          <spell start="2002.0" end="2003.0"></spell>
          <spell start="2004.0" end="2005.0"></spell>
          <spell start="2015.0" end="2016.0"></spell>
          <spell start="2017.0" end="2018.0"></spell>
          <spell start="2018.0" end="2019.0"></spell>
        </spells>
        <viz:color r="242" g="154" b="2"></viz:color>
        <attvalues>
          <attvalue for="matchings_count" value="73"></attvalue>
        </attvalues>
      </edge>
      <edge id="16" source="structacronyms_0d0b7d8c110b14bebcb29c7e28c8e60f" target="level1domains_3f4a3e6fabe83043bc502ecd0f934445">
        <spells>
          <spell start="2017.0" end="2018.0"></spell>
          <spell start="2018.0" end="2019.0"></spell>
        </spells>
        <viz:color r="59" g="233" b="16"></viz:color>
        <attvalues>
          <attvalue for="matchings_count" value="2"></attvalue>
        </attvalues>
      </edge>
      <edge id="17" source="structacronyms_0d0b7d8c110b14bebcb29c7e28c8e60f" target="level1domains_e5c15305aba211a93ccc61a3d4befdf9">
        <spells>
          <spell start="2015.0" end="2016.0"></spell>
          <spell start="2017.0" end="2018.0"></spell>
        </spells>
        <viz:color r="59" g="233" b="16"></viz:color>
        <attvalues>
          <attvalue for="matchings_count" value="2"></attvalue>
        </attvalues>
      </edge>
      <edge id="18" source="structacronyms_0d0b7d8c110b14bebcb29c7e28c8e60f" target="level1domains_b155b0ca48695d05edf323030c791b1c">
        <spells>
          <spell start="1995.0" end="1996.0"></spell>
          <spell start="1996.0" end="1997.0"></spell>
          <spell start="1997.0" end="1998.0"></spell>
          <spell start="2002.0" end="2003.0"></spell>
          <spell start="2004.0" end="2005.0"></spell>
          <spell start="2017.0" end="2018.0"></spell>
          <spell start="2018.0" end="2019.0"></spell>
        </spells>
        <viz:color r="225" g="162" b="3"></viz:color>
        <attvalues>
          <attvalue for="matchings_count" value="45"></attvalue>
        </attvalues>
      </edge>
      <edge id="19" source="structacronyms_0d0b7d8c110b14bebcb29c7e28c8e60f" target="level1domains_b4980fab3af3db863d59f33a20a0a055">
        <spells>
          <spell start="2015.0" end="2016.0"></spell>
          <spell start="2018.0" end="2019.0"></spell>
        </spells>
        <viz:color r="78" g="225" b="15"></viz:color>
        <attvalues>
          <attvalue for="matchings_count" value="3"></attvalue>
        </attvalues>
      </edge>
      <edge id="20" source="structacronyms_caf9b6b99962bf5c2264824231d7a40c" target="level1domains_7f3b4fe02c26a3183d02b1bdf3294035" start="2017.0" end="2018.0">
        <viz:color r="9" g="255" b="21"></viz:color>
        <attvalues>
          <attvalue for="matchings_count" value="1"></attvalue>
        </attvalues>
      </edge>
      <edge id="21" source="structacronyms_caf9b6b99962bf5c2264824231d7a40c" target="level1domains_bdb54e6a4dc75c4b751db58868beaa16">
        <spells>
          <spell start="2002.0" end="2003.0"></spell>
          <spell start="2017.0" end="2018.0"></spell>
          <spell start="2018.0" end="2019.0"></spell>
        </spells>
        <viz:color r="243" g="154" b="2"></viz:color>
        <attvalues>
          <attvalue for="matchings_count" value="77"></attvalue>
        </attvalues>
      </edge>
      <edge id="22" source="structacronyms_caf9b6b99962bf5c2264824231d7a40c" target="level1domains_3f4a3e6fabe83043bc502ecd0f934445">
        <spells>
          <spell start="2017.0" end="2018.0"></spell>
          <spell start="2018.0" end="2019.0"></spell>
        </spells>
        <viz:color r="91" g="219" b="14"></viz:color>
        <attvalues>
          <attvalue for="matchings_count" value="4"></attvalue>
        </attvalues>
      </edge>
      <edge id="23" source="structacronyms_caf9b6b99962bf5c2264824231d7a40c" target="level1domains_e5c15305aba211a93ccc61a3d4befdf9" start="2017.0" end="2018.0">
        <viz:color r="9" g="255" b="21"></viz:color>
        <attvalues>
          <attvalue for="matchings_count" value="1"></attvalue>
        </attvalues>
      </edge>
      <edge id="24" source="structacronyms_caf9b6b99962bf5c2264824231d7a40c" target="level1domains_b155b0ca48695d05edf323030c791b1c">
        <spells>
          <spell start="2002.0" end="2003.0"></spell>
          <spell start="2018.0" end="2019.0"></spell>
        </spells>
        <viz:color r="78" g="225" b="15"></viz:color>
        <attvalues>
          <attvalue for="matchings_count" value="3"></attvalue>
        </attvalues>
      </edge>
      <edge id="25" source="structacronyms_caf9b6b99962bf5c2264824231d7a40c" target="level1domains_16a9f5be74a61d0bae6c4d3f29981825">
        <spells>
          <spell start="2017.0" end="2018.0"></spell>
          <spell start="2018.0" end="2019.0"></spell>
        </spells>
        <viz:color r="150" g="194" b="9"></viz:color>
        <attvalues>
          <attvalue for="matchings_count" value="12"></attvalue>
        </attvalues>
      </edge>
      <edge id="26" source="structacronyms_caf9b6b99962bf5c2264824231d7a40c" target="level1domains_f48ed107b9560794248804ace2d35edb" start="2017.0" end="2018.0">
        <viz:color r="59" g="233" b="16"></viz:color>
        <attvalues>
          <attvalue for="matchings_count" value="2"></attvalue>
        </attvalues>
      </edge>
      <edge id="27" source="structacronyms_8ca6342915ac81dd2d3eec49e2098db9" target="level1domains_bdb54e6a4dc75c4b751db58868beaa16">
        <spells>
          <spell start="2017.0" end="2018.0"></spell>
          <spell start="2018.0" end="2019.0"></spell>
        </spells>
        <viz:color r="177" g="182" b="7"></viz:color>
        <attvalues>
          <attvalue for="matchings_count" value="19"></attvalue>
        </attvalues>
      </edge>
      <edge id="28" source="structacronyms_8ca6342915ac81dd2d3eec49e2098db9" target="level1domains_e5c15305aba211a93ccc61a3d4befdf9" start="2017.0" end="2018.0">
        <viz:color r="9" g="255" b="21"></viz:color>
        <attvalues>
          <attvalue for="matchings_count" value="1"></attvalue>
        </attvalues>
      </edge>
      <edge id="29" source="structacronyms_8ca6342915ac81dd2d3eec49e2098db9" target="level1domains_b155b0ca48695d05edf323030c791b1c">
        <spells>
          <spell start="2012.0" end="2013.0"></spell>
          <spell start="2017.0" end="2018.0"></spell>
        </spells>
        <viz:color r="91" g="219" b="14"></viz:color>
        <attvalues>
          <attvalue for="matchings_count" value="4"></attvalue>
        </attvalues>
      </edge>
      <edge id="30" source="structacronyms_8ca6342915ac81dd2d3eec49e2098db9" target="level1domains_46b05b9e19d31622eeb30f1b0a9d3d66">
        <spells>
          <spell start="2017.0" end="2018.0"></spell>
          <spell start="2018.0" end="2019.0"></spell>
        </spells>
        <viz:color r="91" g="219" b="14"></viz:color>
        <attvalues>
          <attvalue for="matchings_count" value="4"></attvalue>
        </attvalues>
      </edge>
      <edge id="31" source="structacronyms_8ca6342915ac81dd2d3eec49e2098db9" target="level1domains_b4980fab3af3db863d59f33a20a0a055" start="2017.0" end="2018.0">
        <viz:color r="9" g="255" b="21"></viz:color>
        <attvalues>
          <attvalue for="matchings_count" value="1"></attvalue>
        </attvalues>
      </edge>
      <edge id="32" source="structacronyms_04ad253f51f0d71c6dd6879365c364cb" target="level1domains_7f3b4fe02c26a3183d02b1bdf3294035" start="2017.0" end="2018.0">
        <viz:color r="9" g="255" b="21"></viz:color>
        <attvalues>
          <attvalue for="matchings_count" value="1"></attvalue>
        </attvalues>
      </edge>
      <edge id="33" source="structacronyms_04ad253f51f0d71c6dd6879365c364cb" target="level1domains_bdb54e6a4dc75c4b751db58868beaa16">
        <spells>
          <spell start="2015.0" end="2016.0"></spell>
          <spell start="2016.0" end="2017.0"></spell>
          <spell start="2017.0" end="2018.0"></spell>
          <spell start="2018.0" end="2019.0"></spell>
        </spells>
        <viz:color r="231" g="159" b="3"></viz:color>
        <attvalues>
          <attvalue for="matchings_count" value="52"></attvalue>
        </attvalues>
      </edge>
      <edge id="34" source="structacronyms_04ad253f51f0d71c6dd6879365c364cb" target="level1domains_3f4a3e6fabe83043bc502ecd0f934445" start="2017.0" end="2018.0">
        <viz:color r="102" g="214" b="13"></viz:color>
        <attvalues>
          <attvalue for="matchings_count" value="5"></attvalue>
        </attvalues>
      </edge>
      <edge id="35" source="structacronyms_04ad253f51f0d71c6dd6879365c364cb" target="level1domains_b65ccaf07235e2390f0b43eabe99fde0" start="2017.0" end="2018.0">
        <viz:color r="9" g="255" b="21"></viz:color>
        <attvalues>
          <attvalue for="matchings_count" value="1"></attvalue>
        </attvalues>
      </edge>
      <edge id="36" source="structacronyms_04ad253f51f0d71c6dd6879365c364cb" target="level1domains_e5c15305aba211a93ccc61a3d4befdf9">
        <spells>
          <spell start="2017.0" end="2018.0"></spell>
          <spell start="2018.0" end="2019.0"></spell>
        </spells>
        <viz:color r="91" g="219" b="14"></viz:color>
        <attvalues>
          <attvalue for="matchings_count" value="4"></attvalue>
        </attvalues>
      </edge>
      <edge id="37" source="structacronyms_04ad253f51f0d71c6dd6879365c364cb" target="level1domains_b155b0ca48695d05edf323030c791b1c">
        <spells>
          <spell start="2017.0" end="2018.0"></spell>
          <spell start="2018.0" end="2019.0"></spell>
        </spells>
        <viz:color r="59" g="233" b="16"></viz:color>
        <attvalues>
          <attvalue for="matchings_count" value="2"></attvalue>
        </attvalues>
      </edge>
      <edge id="38" source="structacronyms_04ad253f51f0d71c6dd6879365c364cb" target="level1domains_b4980fab3af3db863d59f33a20a0a055" start="2015.0" end="2016.0">
        <viz:color r="59" g="233" b="16"></viz:color>
        <attvalues>
          <attvalue for="matchings_count" value="2"></attvalue>
        </attvalues>
      </edge>
      <edge id="39" source="structacronyms_04ad253f51f0d71c6dd6879365c364cb" target="level1domains_16a9f5be74a61d0bae6c4d3f29981825">
        <spells>
          <spell start="2011.0" end="2012.0"></spell>
          <spell start="2015.0" end="2016.0"></spell>
          <spell start="2016.0" end="2017.0"></spell>
          <spell start="2017.0" end="2018.0"></spell>
          <spell start="2018.0" end="2019.0"></spell>
        </spells>
        <viz:color r="167" g="187" b="8"></viz:color>
        <attvalues>
          <attvalue for="matchings_count" value="16"></attvalue>
        </attvalues>
      </edge>
      <edge id="40" source="structacronyms_04ad253f51f0d71c6dd6879365c364cb" target="level1domains_f48ed107b9560794248804ace2d35edb">
        <spells>
          <spell start="2015.0" end="2016.0"></spell>
          <spell start="2017.0" end="2018.0"></spell>
          <spell start="2018.0" end="2019.0"></spell>
        </spells>
        <viz:color r="78" g="225" b="15"></viz:color>
        <attvalues>
          <attvalue for="matchings_count" value="3"></attvalue>
        </attvalues>
      </edge>
      <edge id="41" source="structacronyms_27c9d5187cd283f8d160ec1ed2b5ac89" target="level1domains_bdb54e6a4dc75c4b751db58868beaa16" start="2017.0" end="2018.0">
        <viz:color r="59" g="233" b="16"></viz:color>
        <attvalues>
          <attvalue for="matchings_count" value="2"></attvalue>
        </attvalues>
      </edge>
      <edge id="42" source="structacronyms_27c9d5187cd283f8d160ec1ed2b5ac89" target="level1domains_b65ccaf07235e2390f0b43eabe99fde0" start="2017.0" end="2018.0">
        <viz:color r="59" g="233" b="16"></viz:color>
        <attvalues>
          <attvalue for="matchings_count" value="2"></attvalue>
        </attvalues>
      </edge>
      <edge id="43" source="structacronyms_27c9d5187cd283f8d160ec1ed2b5ac89" target="level1domains_b155b0ca48695d05edf323030c791b1c">
        <spells>
          <spell start="2017.0" end="2018.0"></spell>
          <spell start="2018.0" end="2019.0"></spell>
        </spells>
        <viz:color r="155" g="192" b="9"></viz:color>
        <attvalues>
          <attvalue for="matchings_count" value="13"></attvalue>
        </attvalues>
      </edge>
      <edge id="44" source="structacronyms_27c9d5187cd283f8d160ec1ed2b5ac89" target="level1domains_46b05b9e19d31622eeb30f1b0a9d3d66" start="2017.0" end="2018.0">
        <viz:color r="9" g="255" b="21"></viz:color>
        <attvalues>
          <attvalue for="matchings_count" value="1"></attvalue>
        </attvalues>
      </edge>
      <edge id="45" source="structacronyms_4d29ea5f748c4cfda37434ce76a5e788" target="level1domains_44283fba74db6886aa3e88dc4971b6b0">
        <spells>
          <spell start="2017.0" end="2018.0"></spell>
          <spell start="2018.0" end="2019.0"></spell>
        </spells>
        <viz:color r="91" g="219" b="14"></viz:color>
        <attvalues>
          <attvalue for="matchings_count" value="4"></attvalue>
        </attvalues>
      </edge>
      <edge id="46" source="structacronyms_4d29ea5f748c4cfda37434ce76a5e788" target="level1domains_bdb54e6a4dc75c4b751db58868beaa16">
        <spells>
          <spell start="2013.0" end="2014.0"></spell>
          <spell start="2017.0" end="2018.0"></spell>
          <spell start="2018.0" end="2019.0"></spell>
        </spells>
        <viz:color r="112" g="210" b="12"></viz:color>
        <attvalues>
          <attvalue for="matchings_count" value="6"></attvalue>
        </attvalues>
      </edge>
      <edge id="47" source="structacronyms_4d29ea5f748c4cfda37434ce76a5e788" target="level1domains_3f4a3e6fabe83043bc502ecd0f934445" start="2018.0" end="2019.0">
        <viz:color r="9" g="255" b="21"></viz:color>
        <attvalues>
          <attvalue for="matchings_count" value="1"></attvalue>
        </attvalues>
      </edge>
      <edge id="48" source="structacronyms_4d29ea5f748c4cfda37434ce76a5e788" target="level1domains_b65ccaf07235e2390f0b43eabe99fde0">
        <spells>
          <spell start="2017.0" end="2018.0"></spell>
          <spell start="2019.0" end="2020.0"></spell>
        </spells>
        <viz:color r="102" g="214" b="13"></viz:color>
        <attvalues>
          <attvalue for="matchings_count" value="5"></attvalue>
        </attvalues>
      </edge>
      <edge id="49" source="structacronyms_4d29ea5f748c4cfda37434ce76a5e788" target="level1domains_b155b0ca48695d05edf323030c791b1c">
        <spells>
          <spell start="2017.0" end="2018.0"></spell>
          <spell start="2018.0" end="2019.0"></spell>
          <spell start="2019.0" end="2020.0"></spell>
        </spells>
        <viz:color r="171" g="185" b="8"></viz:color>
        <attvalues>
          <attvalue for="matchings_count" value="17"></attvalue>
        </attvalues>
      </edge>
      <edge id="50" source="structacronyms_4d29ea5f748c4cfda37434ce76a5e788" target="level1domains_b4980fab3af3db863d59f33a20a0a055" start="2018.0" end="2019.0">
        <viz:color r="59" g="233" b="16"></viz:color>
        <attvalues>
          <attvalue for="matchings_count" value="2"></attvalue>
        </attvalues>
      </edge>
      <edge id="51" source="structacronyms_d54185b71f614c30a396ac4bc44d3269" target="level1domains_bdb54e6a4dc75c4b751db58868beaa16">
        <spells>
          <spell start="1995.0" end="1996.0"></spell>
          <spell start="2017.0" end="2018.0"></spell>
          <spell start="2018.0" end="2019.0"></spell>
        </spells>
        <viz:color r="200" g="172" b="5"></viz:color>
        <attvalues>
          <attvalue for="matchings_count" value="28"></attvalue>
        </attvalues>
      </edge>
      <edge id="52" source="structacronyms_d54185b71f614c30a396ac4bc44d3269" target="level1domains_3f4a3e6fabe83043bc502ecd0f934445">
        <spells>
          <spell start="2017.0" end="2018.0"></spell>
          <spell start="2018.0" end="2019.0"></spell>
        </spells>
        <viz:color r="140" g="198" b="10"></viz:color>
        <attvalues>
          <attvalue for="matchings_count" value="10"></attvalue>
        </attvalues>
      </edge>
      <edge id="53" source="structacronyms_d54185b71f614c30a396ac4bc44d3269" target="level1domains_b65ccaf07235e2390f0b43eabe99fde0" start="2018.0" end="2019.0">
        <viz:color r="91" g="219" b="14"></viz:color>
        <attvalues>
          <attvalue for="matchings_count" value="4"></attvalue>
        </attvalues>
      </edge>
      <edge id="54" source="structacronyms_d54185b71f614c30a396ac4bc44d3269" target="level1domains_b155b0ca48695d05edf323030c791b1c">
        <spells>
          <spell start="1995.0" end="1996.0"></spell>
          <spell start="2003.0" end="2004.0"></spell>
          <spell start="2017.0" end="2018.0"></spell>
          <spell start="2018.0" end="2019.0"></spell>
          <spell start="2019.0" end="2020.0"></spell>
        </spells>
        <viz:color r="236" g="157" b="2"></viz:color>
        <attvalues>
          <attvalue for="matchings_count" value="59"></attvalue>
        </attvalues>
      </edge>
      <edge id="55" source="structacronyms_d54185b71f614c30a396ac4bc44d3269" target="level1domains_46b05b9e19d31622eeb30f1b0a9d3d66">
        <spells>
          <spell start="2017.0" end="2018.0"></spell>
          <spell start="2018.0" end="2019.0"></spell>
        </spells>
        <viz:color r="140" g="198" b="10"></viz:color>
        <attvalues>
          <attvalue for="matchings_count" value="10"></attvalue>
        </attvalues>
      </edge>
      <edge id="56" source="structacronyms_d54185b71f614c30a396ac4bc44d3269" target="level1domains_f48ed107b9560794248804ace2d35edb">
        <spells>
          <spell start="2017.0" end="2018.0"></spell>
          <spell start="2018.0" end="2019.0"></spell>
        </spells>
        <viz:color r="134" g="201" b="11"></viz:color>
        <attvalues>
          <attvalue for="matchings_count" value="9"></attvalue>
        </attvalues>
      </edge>
      <edge id="57" source="structacronyms_9b97b26a378701302032d84e26ecab5d" target="level1domains_bdb54e6a4dc75c4b751db58868beaa16">
        <spells>
          <spell start="2015.0" end="2016.0"></spell>
          <spell start="2016.0" end="2017.0"></spell>
          <spell start="2017.0" end="2018.0"></spell>
          <spell start="2018.0" end="2019.0"></spell>
          <spell start="2019.0" end="2020.0"></spell>
        </spells>
        <viz:color r="246" g="153" b="2"></viz:color>
        <attvalues>
          <attvalue for="matchings_count" value="111"></attvalue>
        </attvalues>
      </edge>
      <edge id="58" source="structacronyms_9b97b26a378701302032d84e26ecab5d" target="level1domains_b155b0ca48695d05edf323030c791b1c">
        <spells>
          <spell start="2017.0" end="2018.0"></spell>
          <spell start="2018.0" end="2019.0"></spell>
        </spells>
        <viz:color r="78" g="225" b="15"></viz:color>
        <attvalues>
          <attvalue for="matchings_count" value="3"></attvalue>
        </attvalues>
      </edge>
      <edge id="59" source="structacronyms_9b97b26a378701302032d84e26ecab5d" target="level1domains_b4980fab3af3db863d59f33a20a0a055" start="2017.0" end="2018.0">
        <viz:color r="9" g="255" b="21"></viz:color>
        <attvalues>
          <attvalue for="matchings_count" value="1"></attvalue>
        </attvalues>
      </edge>
      <edge id="60" source="structacronyms_9b97b26a378701302032d84e26ecab5d" target="level1domains_16a9f5be74a61d0bae6c4d3f29981825" start="2017.0" end="2018.0">
        <viz:color r="102" g="214" b="13"></viz:color>
        <attvalues>
          <attvalue for="matchings_count" value="5"></attvalue>
        </attvalues>
      </edge>
      <edge id="61" source="structacronyms_9b97b26a378701302032d84e26ecab5d" target="level1domains_f48ed107b9560794248804ace2d35edb">
        <spells>
          <spell start="2017.0" end="2018.0"></spell>
          <spell start="2018.0" end="2019.0"></spell>
        </spells>
        <viz:color r="91" g="219" b="14"></viz:color>
        <attvalues>
          <attvalue for="matchings_count" value="4"></attvalue>
        </attvalues>
      </edge>
      <edge id="62" source="structacronyms_59334e721bcd3101864d09e30f5bd34b" target="level1domains_16a9f5be74a61d0bae6c4d3f29981825" start="2017.0" end="2018.0">
        <viz:color r="112" g="210" b="12"></viz:color>
        <attvalues>
          <attvalue for="matchings_count" value="6"></attvalue>
        </attvalues>
      </edge>
      <edge id="63" source="structacronyms_a606bb61c2f4209f355daaa7fa2454fb" target="level1domains_b65ccaf07235e2390f0b43eabe99fde0">
        <spells>
          <spell start="1996.0" end="1997.0"></spell>
          <spell start="2017.0" end="2018.0"></spell>
          <spell start="2018.0" end="2019.0"></spell>
        </spells>
        <viz:color r="102" g="214" b="13"></viz:color>
        <attvalues>
          <attvalue for="matchings_count" value="5"></attvalue>
        </attvalues>
      </edge>
      <edge id="64" source="structacronyms_a606bb61c2f4209f355daaa7fa2454fb" target="level1domains_b155b0ca48695d05edf323030c791b1c" start="2017.0" end="2018.0">
        <viz:color r="9" g="255" b="21"></viz:color>
        <attvalues>
          <attvalue for="matchings_count" value="1"></attvalue>
        </attvalues>
      </edge>
      <edge id="65" source="structacronyms_a606bb61c2f4209f355daaa7fa2454fb" target="level1domains_b4980fab3af3db863d59f33a20a0a055" start="2017.0" end="2018.0">
        <viz:color r="9" g="255" b="21"></viz:color>
        <attvalues>
          <attvalue for="matchings_count" value="1"></attvalue>
        </attvalues>
      </edge>
    </edges>
  </graph>
</gexf>
